Introduction to mrgsolveModels and Events
…
Pipeline to dplyr functions

mod %>% mrgsim() %>% mutate(arm = 1)

. # A tibble: 361 x 9
.       ID  time   GUT  CENT PERIPH    CE EFFECT    CP   arm
.    <dbl> <dbl> <dbl> <dbl>  <dbl> <dbl>  <dbl> <dbl> <dbl>
.  1  1.00 0         0     0      0     0    157     0  1.00
.  2  1.00 0.100     0     0      0     0    157     0  1.00
.  3  1.00 0.200     0     0      0     0    157     0  1.00
.  4  1.00 0.300     0     0      0     0    157     0  1.00
.  5  1.00 0.400     0     0      0     0    157     0  1.00
.  6  1.00 0.500     0     0      0     0    157     0  1.00
.  7  1.00 0.600     0     0      0     0    157     0  1.00
.  8  1.00 0.700     0     0      0     0    157     0  1.00
.  9  1.00 0.800     0     0      0     0    157     0  1.00
. 10  1.00 0.900     0     0      0     0    157     0  1.00
. # ... with 351 more rows
…
