Fc-OPG PK/PD in healthy post-menopausal women
…
Also note

We update param with ith row from post

We update OMEGA and SIGMA from the ith position in the appropriate list of matrices

We will capture the current

It is easy to test the function. The 10th replicate will look like this

sim(10,sc3,des)

. # A tibble: 200 x 7
.       ID  time  PDDV  irep TVIC50  TVQ1 TVVMAX
.    <dbl> <dbl> <dbl> <dbl>  <dbl> <dbl>  <dbl>
.  1  1.00     0  31.9  10.0   3.66  16.4  13480
.  2  1.00   336  37.0  10.0   3.66  16.4  13480
.  3  2.00     0  81.7  10.0   3.66  16.4  13480
.  4  2.00   336  27.3  10.0   3.66  16.4  13480
.  5  3.00     0  63.3  10.0   3.66  16.4  13480
.  6  3.00   336  70.3  10.0   3.66  16.4  13480
.  7  4.00     0  41.8  10.0   3.66  16.4  13480
.  8  4.00   336  19.1  10.0   3.66  16.4  13480
.  9  5.00     0  45.3  10.0   3.66  16.4  13480
. 10  5.00   336  35.3  10.0   3.66  16.4  13480
. # ... with 190 more rows
…
